{
  "version": 4,
  "cmakeMinimumRequired": {
    "major": 3,
    "minor": 25,
    "patch": 2
  },
  "configurePresets" :
  [
    {
      "name": "root",
      "displayName": "Root Configure Preset"
    },
    {
      "name": "strict.std",
      "displayName": "Strict Standard Options",
      "hidden": true,
      "inherits": "root",
      "cacheVariables": {
        "CMAKE_CXX_STANDARD_REQUIRED": "ON",
        "CMAKE_C_STANDARD_REQUIRED": "ON",
        "CMAKE_CXX_EXTENSIONS": "OFF",
        "CMAKE_C_EXTENSIONS": "OFF"
      }
    },
    {
      "name": "package",
      "displayName": "Preset for Package",
      "inherits": "strict.std",
      "cacheVariables": {
        "CMAKE_BUILD_TYPE": "Release"
      }
    },
    {
      "name": "package.doc",
      "displayName": "Preset for Package",
      "inherits": "strict.std",
      "cacheVariables": {
        "CMAKE_BUILD_TYPE": "Release",
        "BUILD_DOC": "On"
      }
    },
    {
      "name": "test",
      "displayName": "Templates for Test",
      "hidden": true,
      "inherits": "strict.std",
      "cacheVariables": {
        "WARNING_AS_ERROR": "ON",
        "BUILD_TESTING": "ON"
      }
    },
    {
      "name": "test.debug",
      "displayName": "Debug",
      "description": "Debug",
      "inherits": "test",
      "cacheVariables": {
        "CMAKE_BUILD_TYPE": "Debug"
      }
    },
    {
      "name": "test.release",
      "displayName": "Release",
      "inherits": "test",
      "cacheVariables": {
        "CMAKE_BUILD_TYPE": "Release"
      }
    },
    {
      "name": "test.format",
      "displayName": "Format Checker",
      "inherits": "test",
      "cacheVariables": {
        "CMAKE_BUILD_TYPE": "Release",
        "DIAGNOSTIC_FORMAT": "ON"
      }
    },
    {
      "name": "test.asan",
      "displayName": "Address Sanitizer",
      "inherits": "test",
      "cacheVariables": {
        "CMAKE_BUILD_TYPE": "Release",
        "DIAGNOSTIC_ASAN": "ON"
      }
    },
    {
      "name": "test.ubsan",
      "displayName": "Undefined Sanitizer",
      "inherits": "test",
      "cacheVariables": {
        "DIAGNOSTIC_UBSAN": "ON"
      }
    },
    {
      "name": "test.lsan",
      "displayName": "Leak Sanitizer",
      "inherits": "test",
      "cacheVariables": {
        "DIAGNOSTIC_LSAN": "ON"
      }
    },
    {
      "name": "test.linting",
      "displayName": ":Linter",
      "inherits": "test",
      "cacheVariables": {
        "DIAGNOSTIC_LINTING": "ON"
      }
    },
    {
      "name": "test.coverage",
      "displayName": "Code Coverage",
      "inherits": "test",
      "cacheVariables": {
        "CMAKE_BUILD_TYPE": "Debug",
        "DIAGNOSTIC_COVERAGE": "ON"
      }
    },
    {
      "name": "test.warning.everything",
      "displayName": "All Warnings Enabled",
      "inherits": "test",
      "cacheVariables": {
        "CMAKE_BUILD_TYPE": "Release",
        "WARNING_MODE": "everything"
      }
    }
  ],
  "buildPresets" :
  [
    {
      "name": "root",
      "configurePreset": "root"
    }
  ],
  "testPresets" :
  [
    {
      "name": "production.test",
      "configurePreset": "root",
      "output": {
        "outputOnFailure": true
      },
      "execution": {
        "noTestsAction": "error"
      },
      "filter": {
        "include" : {
          "label": "production.test"
        }
      }
    },
    {
      "name": "smoke.test",
      "configurePreset": "root",
      "output": {
        "outputOnFailure": true
      },
      "execution": {
        "noTestsAction": "error"
      },
      "filter": {
        "include" : {
          "label": "smoke_test"
        }
      }
    }
  ]
}
